1 10 20
100 200 125
201 210 89
900 1000 174
994463 950429 458
501025 682352 509
529928 676681 509
509190 740405 509
662837 141735 509
360324 884869 525
604479 627494 509
327821 547925 470
131870 272970 443
72944 696831 509
183441 937212 525
793556 146333 509
955691 128765 525
775341 721502 468
477146 937494 525
347609 663270 509
45130 751703 509
111540 197648 383
955198 904008 507
639837 744211 504
916367 358630 525
434921 154827 449
496674 995259 525
900521 303340 525
699342 339831 509
705368 44668 509
761539 502232 509
289262 148807 443
276345 687793 509
890882 972737 507
884820 72260 525
572325 109246 470
328905 433314 449
365630 862877 525
89564 23924 351
662427 716925 504
767876 285499 509
398331 190658 443
665974 355769 509
416197 60313 449
370509 703918 509
654368 281710 509
320115 136764 443
994705 14892 525
269549 761215 509
195386 120299 383
910684 571112 525
754813 809170 468
145369 331617 443
318206 341016 384
565719 546065 452
221454 363149 443
398179 26370 443
273387 790659 509
509631 880445 525
179238 194923 365
834190 5321 509
883373 712307 525
719587 312561 509
724381 383997 509
645758 621553 509
335474 825931 509
430187 66266 449
406245 628744 509
352534 763351 509
920358 756815 525
446247 256651 449
955288 783684 525
23710 604611 470
784356 736949 468
147788 617069 470
305236 651821 509
368837 971244 525
971016 723624 525
119775 761857 509
416761 768044 509
148628 122428 375
379694 835711 509
301366 748779 509
92840 348054 443
450312 644146 509
79896 379100 443
376331 410263 449
400593 947763 525
139899 370769 443
347837 824846 509
117529 208625 383
478888 999686 525
463430 703322 509
732615 880351 525
165076 775983 509
198019 341663 443
400738 757382 509
138315 859354 525
678572 803670 504
463186 11114 449
209269 508071 449
341394 702306 509
543980 747222 509
421110 692951 509
522409 737909 509
910999 429968 525
155097 777863 509
539237 713757 509
394865 716807 509
178491 478728 449
298677 535921 470
192949 201523 360
743714 866967 525
443114 873487 525
78103 135088 354
366278 819064 509
777365 537301 509
778246 787539 437
873185 901926 445
793837 493873 509
468698 519689 470
21514 695990 509
197477 566015 470
238633 767159 509
227995 846602 525
361966 686734 509
339777 481366 449
422455 715739 509
257345 749420 509
153089 425276 449
418947 674417 509
454588 592449 470
3491 649742 509
309606 454735 449
156847 687402 509
35943 492971 449
455368 923961 525
496276 841561 525
304082 347570 441
137858 300450 443
294157 793492 509
30144 488173 449
997810 998506 440
628738 702427 442
261029 442945 449
181672 237692 443
386816 839964 525
595945 941613 525
253029 375837 441
403452 453577 449
476105 859212 525
212119 421511 449
594784 595601 328
549643 959248 525
784634 817873 468
452666 529120 470
252596 648165 509
530693 814390 509
489213 540956 470
1 1 1
1 999999 525
999999 999999 259
999999 1 525
10 1 20
200 100 125
210 201 89
1000 900 174
