1 10 20
100 200 125
201 210 89
900 1000 174
10 1 20
1 1 1
5 5 6
267 5791 238
8720 2465 262
2752 6480 262
1102 2642 209
7235 721 262
8416 1549 262
489 5419 238
5286 7270 262
7893 876 262
4486 4296 215
1127 4781 238
8043 901 262
7434 5945 262
3546 110 217
9530 273 262
8636 3961 262
4141 9447 262
4003 9505 262
5262 8038 262
9196 6890 257
1421 8565 262
8900 8289 234
3126 3982 238
2499 7476 262
1506 8755 262
1812 520 182
3002 9393 262
8542 9838 260
4502 3669 238
3667 5607 238
7712 1521 262
2910 8591 262
6139 5084 236
9698 2344 262
3050 6580 262
6992 2140 262
9830 5641 262
5323 8667 262
5946 87 238
3212 9585 262
8735 494 262
6584 935 262
2599 3261 217
8630 4213 262
6022 4500 236
7612 9940 260
6033 2692 238
5167 4796 210
9556 8725 260
1599 2684 209
1414 3745 238
9383 155 262
5687 1151 238
9538 8528 260
5744 6493 262
519 6471 262
3779 7765 262
2321 714 183
6310 4777 262
7712 384 262
614 3492 217
8360 9298 260
1928 2647 209
9466 2227 262
9280 2586 262
7896 7019 239
8026 4344 262
2975 2313 217
2964 1123 217
9126 4416 262
621 7895 262
9253 7647 252
2625 7958 262
2956 6804 262
1838 102 182
9049 2059 262
1711 8027 262
8254 5798 262
6526 601 262
5296 7840 262
1198 7168 262
7344 1541 262
5634 3268 238
738 3312 217
5273 1158 238
5486 284 238
6060 5951 187
402 9097 262
5934 1096 238
3663 8641 262
929 7890 262
2143 5899 238
3931 2637 238
6965 5649 262
6750 7078 257
8649 6609 257
6016 6096 187
9799 4853 262
2887 4171 238
2797 1537 209
2362 8125 262
2684 9581 262
8406 9167 247
1094 1605 182
7621 8075 252
4094 1989 238
4663 3682 238
7343 9718 260
4275 4857 215
6299 558 262
7590 6256 257
9615 1136 262
5783 5299 236
5461 9731 262
5508 4440 210
9599 7352 260
7455 9885 260
5749 7082 262
4500 598 238
6547 8424 257
8146 739 262
5409 5130 192
7145 506 262
884 362 179
4724 3219 238
2792 1325 209
8334 6689 257
421 5784 238
9750 8012 260
5596 8569 262
6921 153 262
2467 496 209
1479 543 182
3862 3506 238
2904 9803 262
4651 4107 215
6627 5740 262
7542 512 262
9450 5830 262
3140 9191 262
3758 6414 262
2432 1857 183
422 6716 262
